{
  "authors": [
    "Christopho"
  ],
  "categories": [
    "Solarus"
  ],
  "creation_date": "2006-04-01",
  "excerpt": "Je dois vous informer que nous venons d'avoir deux gros problèmes liés au développement de Zelda : Mercuris' Chest :( D'abord, je viens de....",
  "id": "2006-04-01-deux-soucis",
  "image_thumbnail": "../../../../../assets/blog/default_article_thumbnail.jpg",
  "page_override": {
    "meta_description": "",
    "meta_image": "../../../../../assets/images/meta_image_fallback.jpg",
    "meta_title": "Deux soucis",
    "parent": "news",
    "slug": "news/2006-04-01-deux-soucis",
    "title": "Deux soucis"
  },
  "page_slug": "news/2006-04-01-deux-soucis",
  "publish": true,
  "title": "Deux soucis"
}