{
  "header": {
    "effect-in": false,
    "elements": {
      "solarus": {
        "icon": false,
        "label": "Solarus",
        "submenu": {
          "show_mobile": false,
          "elements": {
            "overview": {
              "label": "Overview",
              "icon": false,
              "submenu": false,
              "target": false,
              "url": "solarus/overview"
            },
            "download": {
              "icon": false,
              "label": "Download",
              "submenu": false,
              "target": "_parent",
              "url": "solarus/download"
            },
            "changelog": {
              "icon": false,
              "label": "Changelog",
              "submenu": false,
              "target": "_parent",
              "url": "solarus/changelog"
            }
          }
        },
        "target": "_parent",
        "url": "solarus"
      },
      "games": {
        "icon": false,
        "label": "Games",
        "url": "games",
        "submenu": false,
        "target": false
      },
      "development": {
        "icon": false,
        "label": "Development",
        "submenu": {
          "show_mobile": false,
          "elements": {
            "create-with-solarus": {
              "icon": false,
              "label": "Create with Solarus",
              "submenu": false,
              "target": false,
              "url": false
            },
            "resource-packs": {
              "icon": false,
              "label": "Resource packs",
              "submenu": false,
              "target": "_parent",
              "url": "development/resource-packs"
            },
            "tutorials": {
              "icon": false,
              "label": "Tutorials",
              "submenu": false,
              "target": "_parent",
              "url": "development/tutorials"
            },
            "quest-maker-documentation": {
              "icon": false,
              "label": "Quest Maker Documentation",
              "submenu": false,
              "target": "_blank",
              "url": "https://www.solarus-games.org/doc/latest"
            },
            "contribute-to-solarus": {
              "icon": false,
              "label": "Contribute to Solarus",
              "submenu": false,
              "target": false,
              "url": false
            },
            "how-to-contribute": {
              "icon": false,
              "label": "How to contribute",
              "submenu": false,
              "target": false,
              "url": "development/how-to-contribute"
            },
            "donation": {
              "icon": false,
              "label": "Donate",
              "submenu": false,
              "target": false,
              "url": "development/donation"
            },
            "source-code": {
              "icon": false,
              "label": "Source code",
              "submenu": false,
              "target": false,
              "url": "https://gitlab.com/solarus-games/"
            }
          }
        },
        "target": false,
        "url": "development"
      },
      "blog": {
        "icon": false,
        "label": "News",
        "submenu": false,
        "target": "_parent",
        "url": "news"
      },
      "community": {
        "icon": false,
        "label": "Community",
        "url": "",
        "target": "_parent",
        "submenu": {
          "show_mobile": true,
          "elements": {
            "english-forum": {
              "icon": false,
              "label": "Forum",
              "submenu": false,
              "target": "_parent",
              "url": "http://forum.solarus-games.org"
            },
            "discord": {
              "icon": false,
              "label": "Discord Chat",
              "submenu": false,
              "target": "_parent",
              "url": "https://discord.gg/yYHjJHt"
            }
          }
        }
      }
    }
  },
  "footer": {
    "effect-in": false,
    "effect-out": false,
    "elements": {}
  }
}