{
  "excerpt": "Zeal is an offline documentation browser.",
  "id": "book-chapter-solarus-official-guide-tools-zeal",
  "index": 2,
  "origin_tree": "development/tutorials/solarus-official-guide",
  "page_override": {
    "meta_description": "Zeal is an offline documentation browser.",
    "meta_image": "../../../../book/tutorial/solarus-official-guide/images/thumbnail.png",
    "meta_title": "Zeal",
    "parent": "development/tutorials/solarus-official-guide/tools",
    "slug": "development/tutorials/solarus-official-guide/tools/zeal",
    "title": "Zeal"
  },
  "page_slug": "development/tutorials/solarus-official-guide/tools/zeal",
  "publish": true,
  "title": "Zeal"
}
