{
  "authors": [
    "Binbin"
  ],
  "categories": [
    "Solarus"
  ],
  "creation_date": "2018-02-18",
  "excerpt": "Et on continue avec de nouvelles images du remake de Link's Awakening : A Link to the dream !",
  "id": "2018-02-18-la-cave-flagello",
  "image_thumbnail": "../../../../../assets/blog/default_article_thumbnail.jpg",
  "page_override": {
    "meta_description": "",
    "meta_image": "../../../../../assets/images/meta_image_fallback.jpg",
    "meta_title": "La cave Flagello",
    "parent": "news",
    "slug": "news/2018-02-18-la-cave-flagello",
    "title": "La cave Flagello"
  },
  "page_slug": "news/2018-02-18-la-cave-flagello",
  "publish": true,
  "title": "La cave Flagello"
}