{
  "authors": [
    "Christopho"
  ],
  "categories": [
    "Solarus"
  ],
  "creation_date": "2002-05-01",
  "excerpt": "Nous avons ouvert la rubrique Fan Arts du site après avoir reçu de très belles pochettes de DriK. Merci DriK, tu viens de lancer une nouvelle....",
  "id": "2002-05-01-fan-arts-a-vos-pinceaux",
  "image_thumbnail": "../../../../../assets/blog/default_article_thumbnail.jpg",
  "page_override": {
    "meta_description": "",
    "meta_image": "../../../../../assets/images/meta_image_fallback.jpg",
    "meta_title": "Fan Arts ! A vos pinceaux !",
    "parent": "news",
    "slug": "news/2002-05-01-fan-arts-a-vos-pinceaux",
    "title": "Fan Arts ! A vos pinceaux !"
  },
  "page_slug": "news/2002-05-01-fan-arts-a-vos-pinceaux",
  "publish": true,
  "title": "Fan Arts ! A vos pinceaux !"
}