{
  "authors": [
    "Christopho"
  ],
  "categories": [
    "Solarus"
  ],
  "creation_date": "2013-10-18",
  "excerpt": "Solarus 1.1 now officially supports three new mobile systems!\r\n\r\nYou have been waiting for a long time for the Android version. Thanks to Sam101, our....",
  "id": "2013-10-18-android-pandora-and-gcw-zero-ports",
  "image_thumbnail": "../../../../../assets/blog/default_article_thumbnail.jpg",
  "page_override": {
    "meta_description": "",
    "meta_image": "../../../../../assets/images/meta_image_fallback.jpg",
    "meta_title": "Android, Pandora and GCW-Zero ports!",
    "parent": "news",
    "slug": "news/2013-10-18-android-pandora-and-gcw-zero-ports",
    "title": "Android, Pandora and GCW-Zero ports!"
  },
  "page_slug": "news/2013-10-18-android-pandora-and-gcw-zero-ports",
  "publish": true,
  "title": "Android, Pandora and GCW-Zero ports!"
}