{
  "excerpt": "Comment l'arborescence vous présente les fichiers de votre projet selon leur type : maps, tilesets, sprites, musiques, sons, etc.",
  "id": "book-chapter-solarus-video-tutorial-basics-quest-tree",
  "index": 5,
  "origin_tree": "development/tutorials/solarus-video-tutorial",
  "page_override": {
    "meta_description": "Comment l'arborescence vous présente les fichiers de votre projet selon leur type : maps, tilesets, sprites, musiques, sons, etc.",
    "meta_image": "../../../../book/tutorial/solarus-video-tutorial/images/thumbnail.png",
    "meta_title": "L'arbre de quête",
    "parent": "development/tutorials/solarus-video-tutorial",
    "slug": "development/tutorials/solarus-video-tutorial/quest-tree",
    "title": "L'arbre de quête"
  },
  "page_slug": "development/tutorials/solarus-video-tutorial/quest-tree",
  "publish": true,
  "title": "L'arbre de quête"
}
