{
  "authors": [
    "Nintendo",
    "Multiple authors"
  ],
  "downloads": [],
  "excerpt": "All the tools you need to build a Zelda Minish Cap clone.",
  "id": "resource-pack-the-legend-of-zelda-the-minish-cap",
  "image_thumbnail": "images/thumbnail.png",
  "licenses": [
    "Proprietary (Fair use)",
    "GPL v3"
  ],
  "medias": [
    {
      "image": "medias/screen_1.png",
      "thumbnail": "medias/screen_1.png",
      "type": "image"
    },
    {
      "image": "medias/screen_2.png",
      "thumbnail": "medias/screen_2.png",
      "type": "image"
    },
    {
      "image": "medias/screen_3.png",
      "thumbnail": "medias/screen_3.png",
      "type": "image"
    },
    {
      "image": "medias/screen_4.png",
      "thumbnail": "medias/screen_4.png",
      "type": "image"
    },
    {
      "image": "medias/screen_5.png",
      "thumbnail": "medias/screen_5.png",
      "type": "image"
    },
    {
      "image": "medias/screen_6.png",
      "thumbnail": "medias/screen_6.png",
      "type": "image"
    },
    {
      "image": "medias/screen_7.png",
      "thumbnail": "medias/screen_7.png",
      "type": "image"
    },
    {
      "image": "medias/screen_8.png",
      "thumbnail": "medias/screen_8.png",
      "type": "image"
    }
  ],
  "page_override": {
    "meta_description": "Solarus resource pack based on Zelda Minish Cap on GBA (sprites, tilesets, sounds, musics, scripts).",
    "meta_image": "../../../assets/images/meta_image_fallback.jpg",
    "meta_title": "The Legend of Zelda: The Minish Cap",
    "slug": "development/resource-packs/the-legend-of-zelda-the-minish-cap",
    "title": "The Legend of Zelda: The Minish Cap"
  },
  "page_slug": "development/resource-packs/the-legend-of-zelda-the-minish-cap",
  "publish": true,
  "release_date": false,
  "solarus_version": "1.5.x",
  "source_code": "https://github.com/GregoryMcGregerson/minish-resource-pack",
  "title": "The Legend of Zelda: The Minish Cap",
  "version": "-"
}