{
  "authors": [
    "Christopho"
  ],
  "categories": [
    "Solarus"
  ],
  "creation_date": "2003-08-13",
  "excerpt": "Bonjour ! My name is Metallizer, je suis nouveau ici, arrivé depuis un peu plus de deux semaines maintenant. Je suis designer et ce que vous avez....",
  "id": "2003-08-13-nouveau-membre-nouveau-design",
  "image_thumbnail": "../../../../../assets/blog/default_article_thumbnail.jpg",
  "page_override": {
    "meta_description": "",
    "meta_image": "../../../../../assets/images/meta_image_fallback.jpg",
    "meta_title": "Nouveau membre = nouveau design",
    "parent": "news",
    "slug": "news/2003-08-13-nouveau-membre-nouveau-design",
    "title": "Nouveau membre = nouveau design"
  },
  "page_slug": "news/2003-08-13-nouveau-membre-nouveau-design",
  "publish": true,
  "title": "Nouveau membre = nouveau design"
}