{
  "has_breadcrumb": true,
  "meta_description": "Informations légales (entité légale, licences) à propos du projet Solarus.",
  "meta_image": "../../../assets/images/meta_image_fallback.jpg",
  "meta_title": "Informations légales",
  "parent": "about",
  "publish": true,
  "slug": "about/legal",
  "title": "Informations légales"
}