{
  "authors": [
    "Christopho"
  ],
  "categories": [
    "Solarus"
  ],
  "creation_date": "2008-10-09",
  "excerpt": "Le projet Zelda Solarus DX avance chaque jour un peu plus :). Depuis la dernière news, j'ai fait l'écran Carte. Sans plus attendre, voici une....",
  "id": "2008-10-09-lecran-carte",
  "image_thumbnail": "../../../../../assets/blog/default_article_thumbnail.jpg",
  "page_override": {
    "meta_description": "",
    "meta_image": "../../../../../assets/images/meta_image_fallback.jpg",
    "meta_title": "L'écran Carte",
    "parent": "news",
    "slug": "news/2008-10-09-lecran-carte",
    "title": "L'écran Carte"
  },
  "page_slug": "news/2008-10-09-lecran-carte",
  "publish": true,
  "title": "L'écran Carte"
}