{
  "authors": [
    "Christopho"
  ],
  "categories": [
    "Solarus"
  ],
  "creation_date": "2008-10-19",
  "excerpt": "Le développement de Zelda : Mystery of Solarus DX suit son cours :). Cette semaine, j'ai développé le système de collisions au pixel près, qui....",
  "id": "2008-10-19-les-modes-d-affichage",
  "image_thumbnail": "../../../../../assets/blog/default_article_thumbnail.jpg",
  "page_override": {
    "meta_description": "",
    "meta_image": "../../../../../assets/images/meta_image_fallback.jpg",
    "meta_title": "Les modes d'affichage",
    "parent": "news",
    "slug": "news/2008-10-19-les-modes-d-affichage",
    "title": "Les modes d'affichage"
  },
  "page_slug": "news/2008-10-19-les-modes-d-affichage",
  "publish": true,
  "title": "Les modes d'affichage"
}