{
  "has_breadcrumb": true,
  "meta_description": "Tutoriels sur la création de son propre jeu avec Solarus.",
  "meta_image": "../../../assets/images/meta_image_fallback.jpg",
  "meta_title": "Tutoriels",
  "parent": "development",
  "publish": true,
  "slug": "development/tutorials",
  "title": "Tutoriels"
}