{
  "has_breadcrumb": true,
  "meta_description": "Page centrale pour le développement du moteur de jeu Solarus.",
  "meta_image": "../../../assets/images/meta_image_fallback.jpg",
  "meta_title": "Développement",
  "parent": "home",
  "publish": true,
  "slug": "development",
  "title": "Développement"
}