{
  "authors": [
    "Christopho"
  ],
  "categories": [
    "Solarus"
  ],
  "creation_date": "2005-04-07",
  "excerpt": " Voici enfin les artworks officiels de Zelda Solarus (3 ans après tout de même !). Ils illustrent le mode d'emploi du jeu. Vu qu?ils ne....",
  "id": "2005-04-07-zelda-mystery-of-solarus-les-artworks-officiels",
  "image_thumbnail": "../../../../../assets/blog/default_article_thumbnail.jpg",
  "page_override": {
    "meta_description": "",
    "meta_image": "../../../../../assets/images/meta_image_fallback.jpg",
    "meta_title": "Zelda : Mystery of Solarus : les artworks officiels !",
    "parent": "news",
    "slug": "news/2005-04-07-zelda-mystery-of-solarus-les-artworks-officiels",
    "title": "Zelda : Mystery of Solarus : les artworks officiels !"
  },
  "page_slug": "news/2005-04-07-zelda-mystery-of-solarus-les-artworks-officiels",
  "publish": true,
  "title": "Zelda : Mystery of Solarus : les artworks officiels !"
}