{
  "age": "All publics",
  "authors": [ "KaKaShUruKioRa", "Light Raven" ], // Your name or the name of your game studio
  "controls": [ "keyboard", "gamepad" ],
  "downloads": [
    {
      "content": "downloads/any.md",
      "file": "https://github.com/dylodragon/The-Only-One-Project/releases/download/v0.1.3/The.Only.One.v0.1.3.solarus",
      "label": ".solarus file",
      "platform": "any",
      "version": "0.1.3"
    }
  ],
  "excerpt": "The Only One Project is a small hardcore adventure with a pre-dungeon, and a big dungeon with lots of twisted puzzles, a 'funny' mini-boss, and a big original final boss in its pattern!", // A sentence to summarize your game.
  "extras": [],
  "icons": { // The icons
    "16x16": "icons/icon_16x16.png",
    "32x32": "icons/icon_32x32.png",
    "64x64": "icons/icon_64x64.png",
    "128x128": "icons/icon_128x128.png"
  },
  "id": "game-the-only-one-projet", // id of your game (begins always with game-)
  "image_cover": "images/cover.jpg", // The cover
  "image_logo": "images/logo.png", // The logo
  "image_logo_author": "../../../assets/authors/light_raven.png",
  "image_thumbnail": "images/thumbnail.png", // The thumbnail
  "languages": [ "English", "French" ], // The languages available in your game.
  "licenses": [ "GPL v3", "CC-BY-SA 4.0", "Proprietary (Fair use)" ], // The licenses used for your game.
  "medias": [ // The screenshots
    {
      "image": "medias/screen_1.png",
      "thumbnail": "medias/screen_1.png",
      "type": "image"
    },
    {
      "image": "medias/screen_2.png",
      "thumbnail": "medias/screen_2.png",
      "type": "image"
    },
    {
      "image": "medias/screen_3.png",
      "thumbnail": "medias/screen_3.png",
      "type": "image"
    },
    {
      "image": "medias/screen_4.png",
      "thumbnail": "medias/screen_4.png",
      "type": "image"
    },
    {
      "image": "medias/screen_5.png",
      "thumbnail": "medias/screen_5.png",
      "type": "image"
    },
    {
      "image": "medias/screen_6.png",
      "thumbnail": "medias/screen_6.png",
      "type": "image"
    },
    {
      "image": "medias/screen_7.png",
      "thumbnail": "medias/screen_7.png",
      "type": "image"
    },
    {
      "image": "medias/screen_8.png",
      "thumbnail": "medias/screen_8.png",
      "type": "image"
    },
    {
      "image": "medias/screen_9.png",
      "thumbnail": "medias/screen_9.png",
      "type": "image"
    },
    {
      "image": "medias/screen_10.png",
      "thumbnail": "medias/screen_10.png",
      "type": "image"
    },
    {
      "image": "medias/screen_11.png",
      "thumbnail": "medias/screen_11.png",
      "type": "image"
    },
    {
      "image": "medias/screen_12.png",
      "thumbnail": "medias/screen_12.png",
      "type": "image"
    },
    {
      "image": "medias/screen_13.png",
      "thumbnail": "medias/screen_13.png",
      "type": "image"
    },
    {
      "image": "medias/screen_14.png",
      "thumbnail": "medias/screen_14.png",
      "type": "image"
    }
    // You can add as much screenshots as you want, but use multiple of 4 since the gallery display them 4 by 4.
  ],
  "page_override": {
    "meta_description": "Une Zelda Hardcore avec un donjon",
    "meta_image": "images/thumbnail.png", // The thumbnail
    "meta_title": "The Only One Project",
    "slug": "games/the-only-one-project",
    "title": "The Only One Project" // The icons
  },
  "page_slug": "games/the-only-one-project", // slug of the page.
  "players": 1, // Number of players in your game.
  "publish": true, // true if the page should be visible on the website.
  "release_date": "2021-09-07", // Release date in the form YYYY-MM-DD
  "solarus_version": "1.6.5",
  "website": "https://open.spotify.com/artist/2nRyP56IOlGpXgG1yuOpZ2",
  "source_code": "https://gitlab.com/dylodragon/the-only-one-project",
  "states": [ "Released" ],
  "title": "The Only One Project", // Title
  "types": [ "Action-RPG", "Adventure" ], // The game's genre
  "version": "0.1.3"
}
