{
  "excerpt": "Chapter 13 of the walkthrough for The Legend of Zelda: Mystery of Solarus DX.",
  "id": "book-chapter-the-legend-of-zelda-mystery-of-solarus-dx-walkthrough-13",
  "index": 13,
  "origin_tree": "games/the-legend-of-zelda-mystery-of-solarus-dx/walkthrough",
  "page_override": {
    "meta_description": "Chapter 13 of the walkthrough for The Legend of Zelda: Mystery of Solarus DX.",
    "meta_image": "../../../assets/images/meta_image_fallback.jpg",
    "meta_title": "The Keys Festival",
    "parent": "games/the-legend-of-zelda-mystery-of-solarus-dx/walkthrough",
    "slug": "games/the-legend-of-zelda-mystery-of-solarus-dx/walkthrough/13-keys-festival",
    "title": "The Keys Festival"
  },
  "page_slug": "games/the-legend-of-zelda-mystery-of-solarus-dx/walkthrough/13-keys-festival",
  "publish": true,
  "title": "The Keys Festival"
}
