{
  "excerpt": "Chapter 16 of the walkthrough for The Legend of Zelda: Mystery of Solarus DX.",
  "id": "book-chapter-the-legend-of-zelda-mystery-of-solarus-dx-walkthrough-16",
  "index": 16,
  "origin_tree": "games/the-legend-of-zelda-mystery-of-solarus-dx/walkthrough",
  "page_override": {
    "meta_description": "Chapter 16 of the walkthrough for The Legend of Zelda: Mystery of Solarus DX.",
    "meta_image": "../../../assets/images/meta_image_fallback.jpg",
    "meta_title": "Mirror, Mirror on the wall...",
    "parent": "games/the-legend-of-zelda-mystery-of-solarus-dx/walkthrough",
    "slug": "games/the-legend-of-zelda-mystery-of-solarus-dx/walkthrough/16-mirror-on-the-wall",
    "title": "Mirror, Mirror on the wall..."
  },
  "page_slug": "games/the-legend-of-zelda-mystery-of-solarus-dx/walkthrough/16-mirror-on-the-wall",
  "publish": true,
  "title": "Mirror, Mirror on the wall..."
}
