{
  "authors": [
    "Binbin",
    "Olivier Cléro",
    "Christopho"
  ],
  "categories": [
    "Website",
    "Solarus"
  ],
  "creation_date": "2019-04-01",
  "excerpt": "Le nouveau site est finalement prêt, avec plein d'améliorations !",
  "id": "article-2019-04-01-new-website-release",
  "image_thumbnail": "2019-04-01-new-website-release/cover.jpg",
  "page_override": {
    "meta_description": "Le nouveau site est finalement prêt, avec plein d'améliorations !",
    "meta_image": "../../../../assets/images/meta_image_fallback.jpg",
    "meta_title": "Zelda Solarus devient Solarus-Games !",
    "parent": "news",
    "slug": "news/2019-04-01-new-website-release",
    "title": "Zelda Solarus devient Solarus-Games !"
  },
  "page_slug": "news/2019-04-01-new-website-release",
  "publish": true,
  "title": "Zelda Solarus devient Solarus-Games !"
}