{
  "excerpt": "Les tutoriels écrits sont uniquement en anglais pour l'instant.",
  "id": "book-chapter-solarus-official-guide-basics",
  "index": 1,
  "origin_tree": "development/tutorials/solarus-official-guide",
  "page_override": {
    "meta_description": "Les tutoriels écrits sont uniquement en anglais pour l'instant.",
    "meta_image": "../../../book/tutorial/solarus-official-guide/images/thumbnail.png",
    "meta_title": "Informations",
    "parent": "development/tutorials/solarus-official-guide",
    "slug": "development/tutorials/solarus-official-guide/basics",
    "title": "Informations"
  },
  "page_slug": "development/tutorials/solarus-official-guide/basics",
  "publish": true,
  "title": "Informations"
}
