{
  "authors": [
    "Christopho"
  ],
  "categories": [
    "Solarus"
  ],
  "creation_date": "2012-02-20",
  "excerpt": "Bonjour à tous, Deux nouveaux épisodes de la soluce vidéo sont disponibles. La série va maintenant jusqu'à la fin du deuxième donjon.",
  "id": "2012-02-20-zelda-solarus-dx-suite-de-la-soluce",
  "image_thumbnail": "../../../../../assets/blog/default_article_thumbnail.jpg",
  "page_override": {
    "meta_description": "",
    "meta_image": "../../../../../assets/images/meta_image_fallback.jpg",
    "meta_title": "Zelda Solarus DX : suite de la soluce",
    "parent": "news",
    "slug": "news/2012-02-20-zelda-solarus-dx-suite-de-la-soluce",
    "title": "Zelda Solarus DX : suite de la soluce"
  },
  "page_slug": "news/2012-02-20-zelda-solarus-dx-suite-de-la-soluce",
  "publish": true,
  "title": "Zelda Solarus DX : suite de la soluce"
}