{
  "has_breadcrumb": true,
  "meta_description": "Donate to the Solarus game engine project.",
  "meta_image": "../../../assets/images/meta_image_fallback.jpg",
  "meta_title": "Donation",
  "parent": "development",
  "publish": true,
  "slug": "development/donation",
  "title": "Donation"
}