{
  "authors": [
    "Olivier Cléro"
  ],
  "categories": [
    "Games"
  ],
  "creation_date": "2019-05-19",
  "excerpt": "Un nouveau jeu fait avec Solarus est disponible : le chapitre 2 du Défi de Zeldo !",
  "id": "article-2019-05-19-zeldo-game-release",
  "image_thumbnail": "2019-05-19-zeldo-game-release/cover.jpg",
  "page_override": {
    "meta_description": "Un nouveau jeu fait avec Solarus est disponible : le chapitre 2 du Défi de Zeldo !",
    "meta_image": "../../../../assets/images/meta_image_fallback.jpg",
    "meta_title": "Sortie du chapitre 2 du Défi de Zeldo",
    "parent": "news",
    "slug": "news/2019-05-19-zeldo-game-release",
    "title": "Sortie du chapitre 2 du Défi de Zeldo"
  },
  "page_slug": "news/2019-05-19-zeldo-game-release",
  "publish": true,
  "title": "Sortie du chapitre 2 du Défi de Zeldo"
}