{
  "authors": [
    "Olivier Cléro"
  ],
  "categories": [
    "Solarus"
  ],
  "creation_date": "2018-09-25",
  "excerpt": "\r\n\r\nWe were previously using Gitter to chat. However, it has multiple issues so we decided to move to Discord. You can now join the server to chat....",
  "id": "2018-09-25-solarus-chat-has-moved-to-discord",
  "image_thumbnail": "../../../../../assets/blog/default_article_thumbnail.jpg",
  "page_override": {
    "meta_description": "",
    "meta_image": "../../../../../assets/images/meta_image_fallback.jpg",
    "meta_title": "Solarus Chat has moved to Discord",
    "parent": "news",
    "slug": "news/2018-09-25-solarus-chat-has-moved-to-discord",
    "title": "Solarus Chat has moved to Discord"
  },
  "page_slug": "news/2018-09-25-solarus-chat-has-moved-to-discord",
  "publish": true,
  "title": "Solarus Chat has moved to Discord"
}