{
  "authors": [
    "Christopho"
  ],
  "categories": [
    "Solarus"
  ],
  "creation_date": "2001-08-23",
  "excerpt": "J'ai beaucoup avancé en ce vendredi de vacances ensoleillées...\n\nJ'ai enfin réglé définitivement les bugs liés au G... oups, j'ai failli vous....",
  "id": "2001-08-23-quoi-de-neuf-aujourd-hui",
  "image_thumbnail": "../../../../../assets/blog/default_article_thumbnail.jpg",
  "page_override": {
    "meta_description": "",
    "meta_image": "../../../../../assets/images/meta_image_fallback.jpg",
    "meta_title": "Quoi de neuf aujourd'hui ?",
    "parent": "news",
    "slug": "news/2001-08-23-quoi-de-neuf-aujourd-hui",
    "title": "Quoi de neuf aujourd'hui ?"
  },
  "page_slug": "news/2001-08-23-quoi-de-neuf-aujourd-hui",
  "publish": true,
  "title": "Quoi de neuf aujourd'hui ?"
}