{
  "authors": [
    "Olivier Cléro"
  ],
  "categories": [
    "Solarus"
  ],
  "creation_date": "2019-08-10",
  "excerpt": "An update that mainly fixes issues caused by the use of OpenGL.",
  "id": "2019-08-10-solarus-1-6-1-bugfix-release",
  "image_thumbnail": "2019-08-10-solarus-1-6-1-bugfix-release/cover.jpg",
  "page_override": {
    "meta_description": "An update that mainly fixes issues caused by the use of OpenGL.",
    "meta_image": "../../../../../assets/images/meta_image_fallback.jpg",
    "meta_title": "Bugfix release 1.6.1 for Solarus",
    "parent": "news",
    "slug": "news/2019-08-10-solarus-1-6-1-bugfix-release",
    "title": "Bugfix release 1.6.1 for Solarus"
  },
  "page_slug": "news/2019-08-10-solarus-1-6-1-bugfix-release",
  "publish": true,
  "title": "Bugfix release 1.6.1 for Solarus"
}