{
  "authors": [
    "Nintendo",
    "Multiple authors"
  ],
  "downloads": [],
  "excerpt": "All the tools you need to build a Zelda 1 clone.",
  "id": "resource-pack-the-legend-of-zelda-1",
  "image_thumbnail": "images/thumbnail.png",
  "licenses": [
    "Proprietary (Fair use)",
    "GPL v3"
  ],
  "medias": [
    {
      "image": "medias/screen_1.png",
      "thumbnail": "medias/screen_1.png",
      "type": "image"
    },
    {
      "image": "medias/screen_2.png",
      "thumbnail": "medias/screen_2.png",
      "type": "image"
    },
    {
      "image": "medias/screen_3.png",
      "thumbnail": "medias/screen_3.png",
      "type": "image"
    },
    {
      "image": "medias/screen_4.png",
      "thumbnail": "medias/screen_4.png",
      "type": "image"
    },
    {
      "image": "medias/screen_5.png",
      "thumbnail": "medias/screen_5.png",
      "type": "image"
    },
    {
      "image": "medias/screen_6.png",
      "thumbnail": "medias/screen_6.png",
      "type": "image"
    },
    {
      "image": "medias/screen_7.png",
      "thumbnail": "medias/screen_7.png",
      "type": "image"
    },
    {
      "image": "medias/screen_8.png",
      "thumbnail": "medias/screen_8.png",
      "type": "image"
    }
  ],
  "page_override": {
    "meta_description": "Solarus resource pack based on Zelda 1 on NES (sprites, tilesets, sounds, musics, scripts).",
    "meta_image": "../../../assets/images/meta_image_fallback.jpg",
    "meta_title": "The Legend of Zelda 1",
    "slug": "development/resource-packs/the-legend-of-zelda-1",
    "title": "The Legend of Zelda 1"
  },
  "page_slug": "development/resource-packs/the-legend-of-zelda-1",
  "publish": true,
  "release_date": false,
  "solarus_version": "1.6.x",
  "source_code": "http://forum.solarus-games.org/index.php/topic,1365.0.html",
  "title": "The Legend of Zelda 1",
  "version": "-"
}