{
  "authors": [
    "Christopho"
  ],
  "categories": [
    "Solarus"
  ],
  "creation_date": "2002-07-23",
  "excerpt": "Le sujet brûlant du site est de retour, l'info qu'on vous cache depuis plus d'un mois.\nPréparez-vous car nous vous dévoilons enfin l'existence du....",
  "id": "2002-07-23-zelda-solarus-2",
  "image_thumbnail": "../../../../../assets/blog/default_article_thumbnail.jpg",
  "page_override": {
    "meta_description": "",
    "meta_image": "../../../../../assets/images/meta_image_fallback.jpg",
    "meta_title": "Zelda Solarus 2",
    "parent": "news",
    "slug": "news/2002-07-23-zelda-solarus-2",
    "title": "Zelda Solarus 2"
  },
  "page_slug": "news/2002-07-23-zelda-solarus-2",
  "publish": true,
  "title": "Zelda Solarus 2"
}