{
  "authors": [
    "Christopho"
  ],
  "categories": [
    "Solarus"
  ],
  "creation_date": "2017-02-06",
  "excerpt": "Aujourd'hui on vous livre une capture d'écran d'une région dont on ne vous a pas encore beaucoup parlé : le grand lac !  &nbsp; Situé au....",
  "id": "2017-02-06-sur-le-lac",
  "image_thumbnail": "../../../../../assets/blog/default_article_thumbnail.jpg",
  "page_override": {
    "meta_description": "",
    "meta_image": "../../../../../assets/images/meta_image_fallback.jpg",
    "meta_title": "Sur le lac",
    "parent": "news",
    "slug": "news/2017-02-06-sur-le-lac",
    "title": "Sur le lac"
  },
  "page_slug": "news/2017-02-06-sur-le-lac",
  "publish": true,
  "title": "Sur le lac"
}