{
  "authors": [
    "Christopho"
  ],
  "categories": [
    "Solarus"
  ],
  "creation_date": "2010-03-08",
  "excerpt": "Hi everyone,\r\n\r\nThe blog is under construction and new pages may become available at any time. Today I am starting the technical documentation....",
  "id": "2010-03-08-technical-documentation",
  "image_thumbnail": "../../../../../assets/blog/default_article_thumbnail.jpg",
  "page_override": {
    "meta_description": "",
    "meta_image": "../../../../../assets/images/meta_image_fallback.jpg",
    "meta_title": "Technical documentation",
    "parent": "news",
    "slug": "news/2010-03-08-technical-documentation",
    "title": "Technical documentation"
  },
  "page_slug": "news/2010-03-08-technical-documentation",
  "publish": true,
  "title": "Technical documentation"
}