{
  "authors": [
    "Christopho"
  ],
  "categories": [
    "Solarus"
  ],
  "creation_date": "2002-04-26",
  "excerpt": "Salut à tous !\n\nD'abord je vous dis un grand merci car vous êtes très nombreux à avoir déjà téléchargé le jeu !\n\nCe soir à 20 heures (heure....",
  "id": "2002-04-26-grand-chat-ce-soir",
  "image_thumbnail": "../../../../../assets/blog/default_article_thumbnail.jpg",
  "page_override": {
    "meta_description": "",
    "meta_image": "../../../../../assets/images/meta_image_fallback.jpg",
    "meta_title": "Grand chat ce soir !",
    "parent": "news",
    "slug": "news/2002-04-26-grand-chat-ce-soir",
    "title": "Grand chat ce soir !"
  },
  "page_slug": "news/2002-04-26-grand-chat-ce-soir",
  "publish": true,
  "title": "Grand chat ce soir !"
}