{
  "authors": [
    "Christopho"
  ],
  "categories": [
    "Solarus"
  ],
  "creation_date": "2009-01-01",
  "excerpt": "Chers Solarusiens, Nous espérons que vous avez passé de joyeuses fêtes. En ce Jour de l'An, toute l'équipe de Zelda Solarus vous souhaite....",
  "id": "2009-01-01-bonne-annee-a-tous",
  "image_thumbnail": "../../../../../assets/blog/default_article_thumbnail.jpg",
  "page_override": {
    "meta_description": "",
    "meta_image": "../../../../../assets/images/meta_image_fallback.jpg",
    "meta_title": "Bonne année à tous !",
    "parent": "news",
    "slug": "news/2009-01-01-bonne-annee-a-tous",
    "title": "Bonne année à tous !"
  },
  "page_slug": "news/2009-01-01-bonne-annee-a-tous",
  "publish": true,
  "title": "Bonne année à tous !"
}