{
  "excerpt": "Comment créer des trésors : objet ramassable, objet destructible, coffre, ennemi ou encore article de magasin.",
  "id": "book-chapter-solarus-video-tutorial-basics-treasures",
  "index": 8,
  "origin_tree": "development/tutorials/solarus-video-tutorial",
  "page_override": {
    "meta_description": "Comment créer des trésors : objet ramassable, objet destructible, coffre, ennemi ou encore article de magasin.",
    "meta_image": "../../../../book/tutorial/solarus-video-tutorial/images/thumbnail.png",
    "meta_title": "Les trésors",
    "parent": "development/tutorials/solarus-video-tutorial",
    "slug": "development/tutorials/solarus-video-tutorial/treasures",
    "title": "Les trésors"
  },
  "page_slug": "development/tutorials/solarus-video-tutorial/treasures",
  "publish": true,
  "title": "Les trésors"
}
