{
  "authors": [
    "Christopho"
  ],
  "categories": [
    "Solarus"
  ],
  "creation_date": "2018-12-23",
  "excerpt": "Le cadeau de Noël Solarus est arrivé ! Une nouvelle version de notre moteur de jeu Solarus et de l'éditeur de quêtes Solarus Quest Editor....",
  "id": "2018-12-23-solarus-1-6-est-disponible",
  "image_thumbnail": "2018-12-23-solarus-1-6-est-disponible/cover.jpg",
  "page_override": {
    "meta_description": "",
    "meta_image": "../../../../../assets/images/meta_image_fallback.jpg",
    "meta_title": "Solarus 1.6 est disponible",
    "parent": "news",
    "slug": "news/2018-12-23-solarus-1-6-est-disponible",
    "title": "Solarus 1.6 est disponible"
  },
  "page_slug": "news/2018-12-23-solarus-1-6-est-disponible",
  "publish": true,
  "title": "Solarus 1.6 est disponible"
}