{
  "age": "Tous publics",
  "authors": [
    "Matt Wright"
  ],
  "controls": [
    "keyboard",
    "gamepad"
  ],
  "downloads": [
    {
      "content": "downloads/any.md",
      "file": "https://www.dropbox.com/s/5fz908ikkkjzat1/zbom.solarus?dl=1",
      "label": ".solarus file",
      "platform": "any",
      "version": "1.4"
    }
  ],
  "excerpt": "Empêchez la Tribu Noire de détruire Hyrule en obtenant le pouvoir du Livre de Mudora.",
  "icons": {
    "128x128": "icons/icon_128x128.png",
    "16x16": "icons/icon_16x16.png",
    "32x32": "icons/icon_32x32.png",
    "64x64": "icons/icon_64x64.png"
  },
  "id": "game-the-legend-of-zelda-book-of-mudora",
  "image_cover": "images/cover.jpg",
  "image_logo": "images/logo.png",
  "image_thumbnail": "images/thumbnail.png",
  "languages": [
    "Anglais",
    "Français",
    "Espagnol"
  ],
  "licenses": [
    "GPL v3",
    "Propriétaire (usage raisonnable)"
  ],
  "medias": [
    {
      "image": "medias/screen_1.png",
      "thumbnail": "medias/screen_1.png",
      "type": "image"
    },
    {
      "image": "medias/screen_2.png",
      "thumbnail": "medias/screen_2.png",
      "type": "image"
    },
    {
      "image": "medias/screen_3.png",
      "thumbnail": "medias/screen_3.png",
      "type": "image"
    },
    {
      "image": "medias/screen_4.png",
      "thumbnail": "medias/screen_4.png",
      "type": "image"
    }
  ],
  "page_override": {
    "meta_description": "Un jeu amateur Zelda fait avec Solarus, pensé comme une suite à Twilight Princess.",
    "meta_image": "images/thumbnail.png",
    "meta_title": "The Legend of Zelda: Book of Mudora",
    "slug": "games/the-legend-of-zelda-book-of-mudora",
    "title": "The Legend of Zelda: Book of Mudora"
  },
  "page_slug": "games/the-legend-of-zelda-book-of-mudora",
  "players": 1,
  "publish": true,
  "release_date": "2017-08-15",
  "solarus_version": "1.6.x",
  "source_code": "https://github.com/wrightmat/zbom",
  "states": [
    "Publié"
  ],
  "title": "The Legend of Zelda: Book of Mudora",
  "types": [
    "Action-RPG",
    "Aventure"
  ],
  "version": "1.4"
}
