{
  "has_breadcrumb": true,
  "meta_description": "Solarus game engine changelog.",
  "meta_image": "../../../assets/images/meta_image_fallback.jpg",
  "meta_title": "Changelog",
  "parent": "solarus",
  "publish": true,
  "slug": "solarus/changelog",
  "title": "Changelog"
}