{
  "authors": [
    "Christopho"
  ],
  "categories": [
    "Solarus"
  ],
  "creation_date": "2002-09-02",
  "excerpt": "Bienvenue sur la nouvelle version du site Zelda Solarus. C'est avec ce relookage que nous ouvrons également la rubrique consacrée à notre projet....",
  "id": "2002-09-02-zelda-solarus-version-5",
  "image_thumbnail": "../../../../../assets/blog/default_article_thumbnail.jpg",
  "page_override": {
    "meta_description": "",
    "meta_image": "../../../../../assets/images/meta_image_fallback.jpg",
    "meta_title": "Zelda Solarus version 5",
    "parent": "news",
    "slug": "news/2002-09-02-zelda-solarus-version-5",
    "title": "Zelda Solarus version 5"
  },
  "page_slug": "news/2002-09-02-zelda-solarus-version-5",
  "publish": true,
  "title": "Zelda Solarus version 5"
}