{
  "authors": [
    "Christopho"
  ],
  "categories": [
    "Solarus"
  ],
  "creation_date": "2001-10-14",
  "excerpt": "Oui, le dossier sur Oxyd Online contient pas mal d'infos inédites et vous allez bientôt assister à une surprise dont christopho n'est que....",
  "id": "2001-10-14-et-comment",
  "image_thumbnail": "../../../../../assets/blog/default_article_thumbnail.jpg",
  "page_override": {
    "meta_description": "",
    "meta_image": "../../../../../assets/images/meta_image_fallback.jpg",
    "meta_title": "Et comment ! ^_^",
    "parent": "news",
    "slug": "news/2001-10-14-et-comment",
    "title": "Et comment ! ^_^"
  },
  "page_slug": "news/2001-10-14-et-comment",
  "publish": true,
  "title": "Et comment ! ^_^"
}