{
  "authors": [
    "Olivier Cléro"
  ],
  "categories": [
    "Solarus"
  ],
  "creation_date": "2020-10-12",
  "excerpt": "The Solarus logo can now be used in closed-source projects.",
  "id": "article-2020-10-12-mit-solarus-logo",
  "image_thumbnail": "images/cover.jpg",
  "page_override": {
    "meta_description": "The Solarus logo can now be used in closed-source projects.",
    "meta_image": "images/cover.jpg",
    "meta_title": "The Solarus logo is now MIT/CC-BY licensed",
    "parent": "news",
    "slug": "news/2020-10-12-mit-solarus-logo",
    "title": "The Solarus logo is now MIT/CC-BY licensed"
  },
  "page_slug": "news/2020-10-12-mit-solarus-logo",
  "publish": true,
  "title": "The Solarus logo is now MIT/CC-BY licensed"
}